Project 1: Wrangling, Exploration, Visualization
…
## Summarising using group_by based on Player

full_data_team <- full_data %>% separate(Player, into = c("Player", 
    "Team"), sep = "\\(") %>% separate(Team, into = c("Team", 
    NA), sep = "\\)")

# Obtaining counts of players per team
count_of_players_perteam <- full_data_team %>% group_by(Team) %>% 
    summarise(count = n())
count_of_players_perteam

## # A tibble: 33 x 2
##    Team  count
##    <chr> <int>
##  1 ARI       6
##  2 ATL       7
##  3 BAL      10
##  4 BUF       9
##  5 CAR       9
##  6 CHI       8
##  7 CIN       8
##  8 CLE       8
##  9 DAL       8
## 10 DEN       8
## #  with 23 more rows
…
